HW 6: Models
…
Predictive function (6 points)

Write an R function that generates one randomly sampled data set, consisting of a pair \(y_0\) and \(y_1\) of the same length as the original data. The function takes as input a specification of all parameters of the likelihood function. Return the data as a tibble. Example output is shown below.

## # A tibble: 18,249 x 2
##    type    average_price
##    <chr>           <dbl>
##  1 organic          1.53
##  2 organic          1.25
##  3 organic          1.38
##  4 organic          1.00
##  5 organic          1.35
##  6 organic          1.67
##  7 organic          1.71
##  8 organic          1.67
##  9 organic          1.29
## 10 organic          2.43
## # ... with 18,239 more rows
…
